R course Lession 2
…
#head(data_cats)

#figures Here’s

head(data.plot)

$data
# A tibble: 800 × 6
   id    pet   country score   age weight
   <chr> <fct> <fct>   <int> <int>  <dbl>
 1 S001  dog   UK         90     6   19.8
 2 S002  dog   UK        107     8   20.0
 3 S003  dog   UK         94     2   19.1
 4 S004  dog   UK        120    10   19.6
 5 S005  dog   UK        111     4   21.4
 6 S006  dog   UK        110     8   21.3
 7 S007  dog   UK        100     9   19.6
 8 S008  dog   UK        107     8   22.0
 9 S009  dog   UK        106     6   17.6
10 S010  dog   UK        109    11   22.1
# ℹ 790 more rows
…
